{
    "added_datetime": "Sun, 01 Dec 2019 20:10:55 GMT",
    "changed_datetime": "Thu, 05 Dec 2019 21:24:53 GMT",
    "config": {
        "metadata": {
            "queue": "default-test-task-queue",
            "maxTtl": 3600,
            "description": "Task with a lot of nodes"
        },
        "dagAdjacency": {
            "entry1": [
                "downstream1"
            ],
            "downstream1": [
                "downstream2"
            ],
            "downstream2": [
                "downstream3"
            ],
            "downstream3": [
                "downstream4"
            ],
            "downstream4": [
                "downstream5"
            ],
            "downstream5": [
                "downstream6"
            ],
            "downstream6": []
        },
        "taskDefinitions": {
            "entry1": {
                "handler": "foo"
            },
            "downstream1": {
                "handler": "foo"
            },
            "downstream2": {
                "handler": "foo"
            },
            "downstream3": {
                "handler": "foo"
            },
            "downstream4": {
                "handler": "foo"
            },
            "downstream5": {
                "handler": "foo"
            },
            "downstream6": {
                "handler": "foo"
            }
        }
    },
    "status": "success"
}