{
    "data": {
        "count": 1,
        "page": 0,
        "page_size": 15,
        "results": [
            {
                "addedDatetime": "2021-05-15T22:56:31.091085",
                "connectionSettings": {
                    "hostname": {
                        "title": "Hostname",
                        "value": "witty-lynx-baa91b.sermosapp.com"
                    },
                    "port": {
                        "title": "Redis port",
                        "value": 6379
                    },
                    "sentinelPort": {
                        "title": "Redis sentinel port",
                        "value": 26379
                    }
                },
                "id": "f7b9ac9e-0a08-41c5-bada-a4d61dffbc35",
                "name": "local-redis",
                "niceId": "witty-lynx-baa91b",
                "serviceId": "16dee34c-79d8-47f8-b498-ac44aa3add1d",
                "status": "active"
            }
        ]
    },
    "message": "Successfully listed"
}